pu.vcd
$date
	Fri Mar 28 15:31:43 2025
$end
$version
	Icarus Verilog
$end
$timescale
	10ps
$end
$scope module test $end
$var wire 1 ! we $end
$var wire 16 " wd [15:0] $end
$var reg 1 # clk $end
$var reg 1 $ rst $end
$scope module pu $end
$var wire 1 # clk $end
$var wire 1 $ rst $end
$var wire 1 % ze $end
$var wire 1 ! we $end
$var wire 2 & wad [1:0] $end
$var wire 1 ' sg $end
$var wire 16 ( rwd [15:0] $end
$var wire 1 ) result $end
$var wire 1 * pcwe $end
$var wire 1 + pcs $end
$var wire 6 , pca [5:0] $end
$var wire 3 - op [2:0] $end
$var wire 16 . o [15:0] $end
$var wire 16 / mrd [15:0] $end
$var wire 16 0 lp [15:0] $end
$var wire 2 1 liop [1:0] $end
$var wire 8 2 iv [7:0] $end
$var wire 1 3 h $end
$var wire 1 4 dstb $end
$var wire 1 5 dmwe $end
$var wire 1 6 dms $end
$var wire 1 7 counter $end
$var wire 1 8 ca $end
$var wire 2 9 brad [1:0] $end
$var wire 16 : bo [15:0] $end
$var wire 16 ; b [15:0] $end
$var wire 2 < arad [1:0] $end
$var wire 16 = ao [15:0] $end
$var wire 16 > a [15:0] $end
$scope module alu $end
$var wire 1 # clk $end
$var wire 1 $ rst $end
$var wire 16 ? rr [15:0] $end
$var wire 3 @ op [2:0] $end
$var wire 1 4 dstb $end
$var wire 16 A b [15:0] $end
$var wire 16 B a [15:0] $end
$var parameter 32 C ADD $end
$var parameter 32 D ASL $end
$var parameter 32 E NAD $end
$var parameter 32 F RSL $end
$var parameter 32 G RSR $end
$var parameter 32 H SUB $end
$var parameter 32 I THB $end
$var parameter 32 J XOR $end
$var reg 1 8 ca $end
$var reg 17 K r [16:0] $end
$var reg 1 ' sg $end
$var reg 1 % ze $end
$upscope $end
$scope module asel $end
$var wire 16 L b [15:0] $end
$var wire 1 + s $end
$var wire 16 M a [15:0] $end
$var reg 16 N o [15:0] $end
$upscope $end
$scope module dec $end
$var wire 1 8 ca $end
$var wire 1 ' sg $end
$var wire 1 % ze $end
$var wire 16 O o [15:0] $end
$var parameter 32 P ADD $end
$var parameter 32 Q ASL $end
$var parameter 32 R CA $end
$var parameter 32 S IMM $end
$var parameter 32 T LIH $end
$var parameter 32 U LIL $end
$var parameter 32 V NAD $end
$var parameter 32 W RSL $end
$var parameter 32 X RSR $end
$var parameter 32 Y SG $end
$var parameter 32 Z SUB $end
$var parameter 32 [ THB $end
$var parameter 32 \ THU $end
$var parameter 32 ] UC $end
$var parameter 32 ^ XOR $end
$var parameter 32 _ ZE $end
$var reg 1 6 dms $end
$var reg 1 5 dmwe $end
$var reg 1 4 dstb $end
$var reg 1 ` f1 $end
$var reg 1 a f2 $end
$var reg 1 3 h $end
$var reg 8 b iv [7:0] $end
$var reg 2 c liop [1:0] $end
$var reg 3 d op [2:0] $end
$var reg 1 + pcs $end
$var reg 1 * pcwe $end
$var reg 2 e ra [1:0] $end
$var reg 2 f rb [1:0] $end
$var reg 2 g wad [1:0] $end
$var reg 1 ! we $end
$upscope $end
$scope module dmem $end
$var wire 8 h ad [7:0] $end
$var wire 1 # clk $end
$var wire 16 i rd [15:0] $end
$var wire 1 5 we $end
$var wire 16 j wd [15:0] $end
$upscope $end
$scope module dsel $end
$var wire 16 k a [15:0] $end
$var wire 16 l b [15:0] $end
$var wire 1 6 s $end
$var reg 16 m o [15:0] $end
$upscope $end
$scope module imem $end
$var wire 6 n pc [5:0] $end
$var reg 16 o o [15:0] $end
$upscope $end
$scope module lidx $end
$var wire 8 p iv [7:0] $end
$var wire 2 q op [1:0] $end
$var wire 16 r i [15:0] $end
$var parameter 32 s IMM $end
$var parameter 32 t LIH $end
$var parameter 32 u LIL $end
$var parameter 32 v THU $end
$var reg 16 w o [15:0] $end
$upscope $end
$scope module pc $end
$var wire 1 # clk $end
$var wire 1 3 halt $end
$var wire 1 $ rst $end
$var wire 6 x rwd [5:0] $end
$var wire 1 * we $end
$var reg 6 y pc [5:0] $end
$upscope $end
$scope module rega $end
$var wire 16 z a [15:0] $end
$var wire 2 { arad [1:0] $end
$var wire 16 | b [15:0] $end
$var wire 2 } brad [1:0] $end
$var wire 1 # clk $end
$var wire 16 ~ counter [15:0] $end
$var wire 16 !" result [15:0] $end
$var wire 1 $ rst $end
$var wire 2 "" wad [1:0] $end
$var wire 16 #" wd [15:0] $end
$var wire 1 ! we $end
$upscope $end
$upscope $end
$upscope $end
$enddefinitions $end
$comment Show the parameter values. $end
$dumpall
b0 v
b10 u
b11 t
b1 s
b1 _
b111 ^
b0 ]
b0 \
b10 [
b1 Z
b11 Y
b101 X
b100 W
b110 V
b10 U
b11 T
b1 S
b10 R
b11 Q
b0 P
b111 J
b10 I
b1 H
b101 G
b100 F
b110 E
b11 D
b0 C
$end
#0
$dumpvars
b0 #"
b0 ""
b0 !"
b0 ~
b0 }
b0 |
b0 {
b0 z
b0 y
b0 x
b0 w
b0 r
b0 q
b0 p
b0 o
b0 n
b0 m
bx l
b0 k
b0 j
bx i
b0 h
b0 g
b0 f
b0 e
b10 d
b0 c
b0 b
1a
1`
b0 O
b0 N
b0 M
b0 L
b0 K
b0 B
b0 A
b10 @
b0 ?
b0 >
b0 =
b0 <
b0 ;
b0 :
b0 9
08
07
06
05
14
03
b0 2
b0 1
b0 0
bx /
b0 .
b10 -
b0 ,
0+
0*
0)
b0 (
0'
b0 &
0%
1$
0#
b0 "
0!
$end
#500
1#
#1000
0#
#1500
1#
#2000
0#
0$
#2500
b1 x
b1 h
b1 "
b1 (
b1 m
b1 #"
b1 0
b1 ?
b1 k
b1 K
b1 :
b1 A
b1 w
1!
b1 2
b1 b
b1 p
b10 1
b10 c
b10 q
04
1a
1`
b1000001000000001 .
b1000001000000001 O
b1000001000000001 o
b1 L
b1 ,
b1 n
b1 y
1#
#3000
0#
#3500
b0 2
b0 b
b0 p
b11 1
b11 c
b11 q
1!
1a
1`
b1 =
b1 B
b1 N
b1000001100000000 .
b1000001100000000 O
b1000001100000000 o
b1 >
b1 M
b1 z
b1 ;
b1 j
b1 r
b1 |
b10 L
b10 ,
b10 n
b10 y
1#
#4000
0#
#4500
b0 ;
b0 j
b0 r
b0 |
b1 9
b1 f
b1 }
b1 &
b1 g
b1 ""
b1 2
b1 b
b1 p
b10 1
b10 c
b10 q
1!
1a
1`
b1000011000000001 .
b1000011000000001 O
b1000011000000001 o
b11 L
b11 ,
b11 n
b11 y
1#
#5000
0#
#5500
b0 2
b0 b
b0 p
b11 1
b11 c
b11 q
b1 &
b1 g
b1 ""
1!
b1 9
b1 f
b1 }
1a
1`
b1000011100000000 .
b1000011100000000 O
b1000011100000000 o
b1 ;
b1 j
b1 r
b1 |
b100 L
b100 ,
b100 n
b100 y
1#
#6000
0#
#6500
b10000 x
b10000 h
b10000 "
b10000 (
b10000 m
b10000 #"
b10000 0
b10000 ?
b10000 k
b10000 K
b10000 :
b10000 A
b10000 w
b0 ;
b0 j
b0 r
b0 |
b10000 2
b10000 b
b10000 p
b10 1
b10 c
b10 q
b11 &
b11 g
b11 ""
1!
b11 9
b11 f
b11 }
1a
1`
b1000111000010000 .
b1000111000010000 O
b1000111000010000 o
b101 L
b101 ,
b101 n
b101 y
1#
#7000
0#
#7500
b0 2
b0 b
b0 p
b11 1
b11 c
b11 q
b11 &
b11 g
b11 ""
1!
b11 9
b11 f
b11 }
1a
1`
b1000111100000000 .
b1000111100000000 O
b1000111100000000 o
b10000 ;
b10000 j
b10000 r
b10000 |
b10000 ~
b110 L
b110 ,
b110 n
b110 y
1#
#8000
0#
#8500
b10 x
b10 h
b10 "
b10 (
b10 m
b10 #"
b10 0
b10 ?
b10 k
b10 K
b1 :
b1 A
b1 w
b0 -
b0 @
b0 d
b0 1
b0 c
b0 q
b10 &
b10 g
b10 ""
1!
b1 ;
b1 j
b1 r
b1 |
b1 9
b1 f
b1 }
1a
1`
b101000000001 .
b101000000001 O
b101000000001 o
b111 L
b111 ,
b111 n
b111 y
1#
#9000
0#
#9500
b1 x
b1 h
b1 "
b1 (
b1 m
b1 #"
b1 0
b1 ?
b1 k
b1 K
b0 &
b0 g
b0 ""
1!
b10 -
b10 @
b10 d
b1 9
b1 f
b1 }
1a
1`
b100000100001 .
b100000100001 O
b100000100001 o
b10 !"
b1000 L
b1000 ,
b1000 n
b1000 y
1#
#10000
0#
#10500
b10 x
b10 h
b10 "
b10 (
b10 m
b10 #"
b10 0
b10 ?
b10 k
b10 K
b10 :
b10 A
b10 w
b10 ;
b10 j
b10 r
b10 |
b1 &
b1 g
b1 ""
1!
b10 9
b10 f
b10 }
1a
1`
b100100100010 .
b100100100010 O
b100100100010 o
b1001 L
b1001 ,
b1001 n
b1001 y
1#
#11000
0#
#11500
b1111 x
b1111 h
b1111 "
b1111 (
b1111 m
b1111 #"
b1111 0
b1111 ?
b1111 k
b1111 K
b10000 =
b10000 B
b10000 N
b1 :
b1 A
b1 w
b1 2
b1 b
b1 p
b1 1
b1 c
b1 q
b1 -
b1 @
b1 d
b10000 >
b10000 M
b10000 z
b11 <
b11 e
b11 {
b11 &
b11 g
b11 ""
1!
b1 ;
b1 j
b1 r
b1 |
b0 9
b0 f
b0 }
0a
1`
b11111100000001 .
b11111100000001 O
b11111100000001 o
b1010 L
b1010 ,
b1010 n
b1010 y
1#
#12000
0#
#12500
b111 x
b111 h
b100000111 "
b100000111 (
b100000111 m
b100000111 #"
b11111100 :
b11111100 A
b11111100 w
b100000111 0
b100000111 ?
b100000111 k
1*
1+
b11111100 2
b11111100 b
b11111100 p
b1 1
b1 c
b1 q
b0 &
b0 g
b0 ""
0!
b0 -
b0 @
b0 d
b0 <
b0 e
b0 {
1a
0`
b100000111 K
b100110111111100 .
b100110111111100 O
b100110111111100 o
b1011 =
b1011 B
b1011 N
17
b1011 L
b1011 ,
b1011 n
b1011 y
b1 >
b1 M
b1 z
b1111 ~
1#
#13000
0#
#13500
b11 x
b11 h
b11 "
b11 (
b11 m
b11 #"
b11 0
b11 ?
b11 k
b10 :
b10 A
b10 w
b11 K
b10 ;
b10 j
b10 r
b10 |
b1 9
b1 f
b1 }
1!
b10 &
b10 g
b10 ""
0+
0*
b0 2
b0 b
b0 p
b0 1
b0 c
b0 q
b0 -
b0 @
b0 d
1`
1a
b1 =
b1 B
b1 N
b101000000001 .
b101000000001 O
b101000000001 o
b111 L
b111 ,
b111 n
b111 y
1#
#14000
0#
#14500
b10 x
b10 h
b10 "
b10 (
b10 m
b10 #"
b10 0
b10 ?
b10 k
b10 K
b0 &
b0 g
b0 ""
1!
b10 -
b10 @
b10 d
b10 ;
b10 j
b10 r
b10 |
b1 9
b1 f
b1 }
1a
1`
b100000100001 .
b100000100001 O
b100000100001 o
1)
b1000 L
b1000 ,
b1000 n
b1000 y
b11 !"
1#
#15000
0#
#15500
b11 x
b11 h
b11 "
b11 (
b11 m
b11 #"
b11 0
b11 ?
b11 k
b11 K
b11 :
b11 A
b11 w
b11 ;
b11 j
b11 r
b11 |
b1 &
b1 g
b1 ""
1!
b10 9
b10 f
b10 }
1a
1`
b10 =
b10 B
b10 N
b100100100010 .
b100100100010 O
b100100100010 o
b10 >
b10 M
b10 z
b1001 L
b1001 ,
b1001 n
b1001 y
1#
#16000
0#
#16500
b1110 x
b1110 h
b1110 "
b1110 (
b1110 m
b1110 #"
b1110 0
b1110 ?
b1110 k
b1110 K
b1111 =
b1111 B
b1111 N
b1 :
b1 A
b1 w
b1 2
b1 b
b1 p
b1 1
b1 c
b1 q
b1 -
b1 @
b1 d
b1111 >
b1111 M
b1111 z
b11 <
b11 e
b11 {
b11 &
b11 g
b11 ""
1!
b10 ;
b10 j
b10 r
b10 |
b0 9
b0 f
b0 }
0a
1`
b11111100000001 .
b11111100000001 O
b11111100000001 o
b1010 L
b1010 ,
b1010 n
b1010 y
1#
#17000
0#
#17500
b111 x
b111 h
b100000111 "
b100000111 (
b100000111 m
b100000111 #"
b100000111 0
b100000111 ?
b100000111 k
b11111100 :
b11111100 A
b11111100 w
b100000111 K
1*
1+
b11111100 2
b11111100 b
b11111100 p
b1 1
b1 c
b1 q
b0 &
b0 g
b0 ""
0!
b0 -
b0 @
b0 d
b0 <
b0 e
b0 {
1a
0`
07
b1011 =
b1011 B
b1011 N
b100110111111100 .
b100110111111100 O
b100110111111100 o
b10 >
b10 M
b10 z
b1110 ~
b1011 L
b1011 ,
b1011 n
b1011 y
1#
#18000
0#
#18500
b101 x
b101 h
b101 "
b101 (
b101 m
b101 #"
b101 0
b101 ?
b101 k
b11 :
b11 A
b11 w
b101 K
b11 ;
b11 j
b11 r
b11 |
b1 9
b1 f
b1 }
1!
b10 &
b10 g
b10 ""
0+
0*
b0 2
b0 b
b0 p
b0 1
b0 c
b0 q
b0 -
b0 @
b0 d
1`
1a
b10 =
b10 B
b10 N
b101000000001 .
b101000000001 O
b101000000001 o
b111 L
b111 ,
b111 n
b111 y
1#
#19000
0#
#19500
b11 x
b11 h
b11 "
b11 (
b11 m
b11 #"
b11 0
b11 ?
b11 k
b11 K
b0 &
b0 g
b0 ""
1!
b10 -
b10 @
b10 d
b11 ;
b11 j
b11 r
b11 |
b1 9
b1 f
b1 }
1a
1`
b100000100001 .
b100000100001 O
b100000100001 o
b101 !"
b1000 L
b1000 ,
b1000 n
b1000 y
1#
#20000
0#
#20500
b101 x
b101 h
b101 "
b101 (
b101 m
b101 #"
b101 0
b101 ?
b101 k
b101 K
b101 :
b101 A
b101 w
b101 ;
b101 j
b101 r
b101 |
b1 &
b1 g
b1 ""
1!
b10 9
b10 f
b10 }
1a
1`
b100100100010 .
b100100100010 O
b100100100010 o
b11 =
b11 B
b11 N
b1001 L
b1001 ,
b1001 n
b1001 y
b11 >
b11 M
b11 z
1#
#21000
0#
#21500
b1101 x
b1101 h
b1101 "
b1101 (
b1101 m
b1101 #"
b1101 0
b1101 ?
b1101 k
b1101 K
b1110 =
b1110 B
b1110 N
b1 :
b1 A
b1 w
b1 2
b1 b
b1 p
b1 1
b1 c
b1 q
b1 -
b1 @
b1 d
b1110 >
b1110 M
b1110 z
b11 <
b11 e
b11 {
b11 &
b11 g
b11 ""
1!
b11 ;
b11 j
b11 r
b11 |
b0 9
b0 f
b0 }
0a
1`
b11111100000001 .
b11111100000001 O
b11111100000001 o
b1010 L
b1010 ,
b1010 n
b1010 y
1#
#22000
0#
#22500
b111 x
b111 h
b100000111 "
b100000111 (
b100000111 m
b100000111 #"
b11111100 :
b11111100 A
b11111100 w
b100000111 0
b100000111 ?
b100000111 k
1*
1+
b11111100 2
b11111100 b
b11111100 p
b1 1
b1 c
b1 q
b0 &
b0 g
b0 ""
0!
b0 -
b0 @
b0 d
b0 <
b0 e
b0 {
1a
0`
b100000111 K
b100110111111100 .
b100110111111100 O
b100110111111100 o
b1011 =
b1011 B
b1011 N
17
b1011 L
b1011 ,
b1011 n
b1011 y
b11 >
b11 M
b11 z
b1101 ~
1#
#23000
0#
#23500
b1000 x
b1000 h
b1000 "
b1000 (
b1000 m
b1000 #"
b1000 0
b1000 ?
b1000 k
b101 :
b101 A
b101 w
b1000 K
b101 ;
b101 j
b101 r
b101 |
b1 9
b1 f
b1 }
1!
b10 &
b10 g
b10 ""
0+
0*
b0 2
b0 b
b0 p
b0 1
b0 c
b0 q
b0 -
b0 @
b0 d
1`
1a
b11 =
b11 B
b11 N
b101000000001 .
b101000000001 O
b101000000001 o
b111 L
b111 ,
b111 n
b111 y
1#
#24000
0#
#24500
b101 x
b101 h
b101 "
b101 (
b101 m
b101 #"
b101 0
b101 ?
b101 k
b101 K
b0 &
b0 g
b0 ""
1!
b10 -
b10 @
b10 d
b101 ;
b101 j
b101 r
b101 |
b1 9
b1 f
b1 }
1a
1`
b100000100001 .
b100000100001 O
b100000100001 o
0)
b1000 L
b1000 ,
b1000 n
b1000 y
b1000 !"
1#
#25000
0#
#25500
b1000 x
b1000 h
b1000 "
b1000 (
b1000 m
b1000 #"
b1000 0
b1000 ?
b1000 k
b1000 K
b1000 :
b1000 A
b1000 w
b1000 ;
b1000 j
b1000 r
b1000 |
b1 &
b1 g
b1 ""
1!
b10 9
b10 f
b10 }
1a
1`
b101 =
b101 B
b101 N
b100100100010 .
b100100100010 O
b100100100010 o
b101 >
b101 M
b101 z
b1001 L
b1001 ,
b1001 n
b1001 y
1#
#26000
0#
#26500
b1100 x
b1100 h
b1100 "
b1100 (
b1100 m
b1100 #"
b1100 0
b1100 ?
b1100 k
b1100 K
b1101 =
b1101 B
b1101 N
b1 :
b1 A
b1 w
b1 2
b1 b
b1 p
b1 1
b1 c
b1 q
b1 -
b1 @
b1 d
b1101 >
b1101 M
b1101 z
b11 <
b11 e
b11 {
b11 &
b11 g
b11 ""
1!
b101 ;
b101 j
b101 r
b101 |
b0 9
b0 f
b0 }
0a
1`
b11111100000001 .
b11111100000001 O
b11111100000001 o
b1010 L
b1010 ,
b1010 n
b1010 y
1#
#27000
0#
#27500
b111 x
b111 h
b100000111 "
b100000111 (
b100000111 m
b100000111 #"
b100000111 0
b100000111 ?
b100000111 k
b11111100 :
b11111100 A
b11111100 w
b100000111 K
1*
1+
b11111100 2
b11111100 b
b11111100 p
b1 1
b1 c
b1 q
b0 &
b0 g
b0 ""
0!
b0 -
b0 @
b0 d
b0 <
b0 e
b0 {
1a
0`
07
b1011 =
b1011 B
b1011 N
b100110111111100 .
b100110111111100 O
b100110111111100 o
b101 >
b101 M
b101 z
b1100 ~
b1011 L
b1011 ,
b1011 n
b1011 y
1#
#28000
0#
#28500
b1101 x
b1101 h
b1101 "
b1101 (
b1101 m
b1101 #"
b1101 0
b1101 ?
b1101 k
b1000 :
b1000 A
b1000 w
b1101 K
b1000 ;
b1000 j
b1000 r
b1000 |
b1 9
b1 f
b1 }
1!
b10 &
b10 g
b10 ""
0+
0*
b0 2
b0 b
b0 p
b0 1
b0 c
b0 q
b0 -
b0 @
b0 d
1`
1a
b101 =
b101 B
b101 N
b101000000001 .
b101000000001 O
b101000000001 o
b111 L
b111 ,
b111 n
b111 y
1#
#29000
0#
#29500
b1000 x
b1000 h
b1000 "
b1000 (
b1000 m
b1000 #"
b1000 0
b1000 ?
b1000 k
b1000 K
b0 &
b0 g
b0 ""
1!
b10 -
b10 @
b10 d
b1000 ;
b1000 j
b1000 r
b1000 |
b1 9
b1 f
b1 }
1a
1`
1)
b100000100001 .
b100000100001 O
b100000100001 o
b1101 !"
b1000 L
b1000 ,
b1000 n
b1000 y
1#
#30000
0#
#30500
b1101 x
b1101 h
b1101 "
b1101 (
b1101 m
b1101 #"
b1101 0
b1101 ?
b1101 k
b1101 K
b1101 :
b1101 A
b1101 w
b1101 ;
b1101 j
b1101 r
b1101 |
b1 &
b1 g
b1 ""
1!
b10 9
b10 f
b10 }
1a
1`
b100100100010 .
b100100100010 O
b100100100010 o
b1000 =
b1000 B
b1000 N
b1001 L
b1001 ,
b1001 n
b1001 y
b1000 >
b1000 M
b1000 z
1#
#31000
0#
#31500
b1011 x
b1011 h
b1011 "
b1011 (
b1011 m
b1011 #"
b1011 0
b1011 ?
b1011 k
b1011 K
b1100 =
b1100 B
b1100 N
b1 :
b1 A
b1 w
b1 2
b1 b
b1 p
b1 1
b1 c
b1 q
b1 -
b1 @
b1 d
b1100 >
b1100 M
b1100 z
b11 <
b11 e
b11 {
b11 &
b11 g
b11 ""
1!
b1000 ;
b1000 j
b1000 r
b1000 |
b0 9
b0 f
b0 }
0a
1`
b11111100000001 .
b11111100000001 O
b11111100000001 o
b1010 L
b1010 ,
b1010 n
b1010 y
1#
#32000
0#
#32500
b111 x
b111 h
b100000111 "
b100000111 (
b100000111 m
b100000111 #"
b11111100 :
b11111100 A
b11111100 w
b100000111 0
b100000111 ?
b100000111 k
1*
1+
b11111100 2
b11111100 b
b11111100 p
b1 1
b1 c
b1 q
b0 &
b0 g
b0 ""
0!
b0 -
b0 @
b0 d
b0 <
b0 e
b0 {
1a
0`
b100000111 K
b100110111111100 .
b100110111111100 O
b100110111111100 o
b1011 =
b1011 B
b1011 N
17
b1011 L
b1011 ,
b1011 n
b1011 y
b1000 >
b1000 M
b1000 z
b1011 ~
1#
#33000
0#
#33500
b10101 x
b10101 h
b10101 "
b10101 (
b10101 m
b10101 #"
b10101 0
b10101 ?
b10101 k
b1101 :
b1101 A
b1101 w
b10101 K
b1101 ;
b1101 j
b1101 r
b1101 |
b1 9
b1 f
b1 }
1!
b10 &
b10 g
b10 ""
0+
0*
b0 2
b0 b
b0 p
b0 1
b0 c
b0 q
b0 -
b0 @
b0 d
1`
1a
b1000 =
b1000 B
b1000 N
b101000000001 .
b101000000001 O
b101000000001 o
b111 L
b111 ,
b111 n
b111 y
1#
#34000
0#
#34500
b1101 x
b1101 h
b1101 "
b1101 (
b1101 m
b1101 #"
b1101 0
b1101 ?
b1101 k
b1101 K
b0 &
b0 g
b0 ""
1!
b10 -
b10 @
b10 d
b1101 ;
b1101 j
b1101 r
b1101 |
b1 9
b1 f
b1 }
1a
1`
b100000100001 .
b100000100001 O
b100000100001 o
b1000 L
b1000 ,
b1000 n
b1000 y
b10101 !"
1#
#35000
0#
#35500
b10101 x
b10101 h
b10101 "
b10101 (
b10101 m
b10101 #"
b10101 0
b10101 ?
b10101 k
b10101 K
b10101 :
b10101 A
b10101 w
b10101 ;
b10101 j
b10101 r
b10101 |
b1 &
b1 g
b1 ""
1!
b10 9
b10 f
b10 }
1a
1`
b1101 =
b1101 B
b1101 N
b100100100010 .
b100100100010 O
b100100100010 o
b1101 >
b1101 M
b1101 z
b1001 L
b1001 ,
b1001 n
b1001 y
1#
#36000
0#
#36500
b1010 x
b1010 h
b1010 "
b1010 (
b1010 m
b1010 #"
b1010 0
b1010 ?
b1010 k
b1010 K
b1011 =
b1011 B
b1011 N
b1 :
b1 A
b1 w
b1 2
b1 b
b1 p
b1 1
b1 c
b1 q
b1 -
b1 @
b1 d
b1011 >
b1011 M
b1011 z
b11 <
b11 e
b11 {
b11 &
b11 g
b11 ""
1!
b1101 ;
b1101 j
b1101 r
b1101 |
b0 9
b0 f
b0 }
0a
1`
b11111100000001 .
b11111100000001 O
b11111100000001 o
b1010 L
b1010 ,
b1010 n
b1010 y
1#
#37000
0#
#37500
b111 x
b111 h
b100000111 "
b100000111 (
b100000111 m
b100000111 #"
b100000111 0
b100000111 ?
b100000111 k
b11111100 :
b11111100 A
b11111100 w
b100000111 K
1*
1+
b11111100 2
b11111100 b
b11111100 p
b1 1
b1 c
b1 q
b0 &
b0 g
b0 ""
0!
b0 -
b0 @
b0 d
b0 <
b0 e
b0 {
1a
0`
07
b1011 =
b1011 B
b1011 N
b100110111111100 .
b100110111111100 O
b100110111111100 o
b1101 >
b1101 M
b1101 z
b1010 ~
b1011 L
b1011 ,
b1011 n
b1011 y
1#
#38000
0#
#38500
b100010 x
b100010 h
b100010 "
b100010 (
b100010 m
b100010 #"
b100010 0
b100010 ?
b100010 k
b10101 :
b10101 A
b10101 w
b100010 K
b10101 ;
b10101 j
b10101 r
b10101 |
b1 9
b1 f
b1 }
1!
b10 &
b10 g
b10 ""
0+
0*
b0 2
b0 b
b0 p
b0 1
b0 c
b0 q
b0 -
b0 @
b0 d
1`
1a
b1101 =
b1101 B
b1101 N
b101000000001 .
b101000000001 O
b101000000001 o
b111 L
b111 ,
b111 n
b111 y
1#
#39000
0#
#39500
b10101 x
b10101 h
b10101 "
b10101 (
b10101 m
b10101 #"
b10101 0
b10101 ?
b10101 k
b10101 K
b0 &
b0 g
b0 ""
1!
b10 -
b10 @
b10 d
b10101 ;
b10101 j
b10101 r
b10101 |
b1 9
b1 f
b1 }
1a
1`
0)
b100000100001 .
b100000100001 O
b100000100001 o
b100010 !"
b1000 L
b1000 ,
b1000 n
b1000 y
1#
#40000
0#
#40500
b100010 x
b100010 h
b100010 "
b100010 (
b100010 m
b100010 #"
b100010 0
b100010 ?
b100010 k
b100010 K
b100010 :
b100010 A
b100010 w
b100010 ;
b100010 j
b100010 r
b100010 |
b1 &
b1 g
b1 ""
1!
b10 9
b10 f
b10 }
1a
1`
b100100100010 .
b100100100010 O
b100100100010 o
b10101 =
b10101 B
b10101 N
b1001 L
b1001 ,
b1001 n
b1001 y
b10101 >
b10101 M
b10101 z
1#
#41000
0#
#41500
b1001 x
b1001 h
b1001 "
b1001 (
b1001 m
b1001 #"
b1001 0
b1001 ?
b1001 k
b1001 K
b1010 =
b1010 B
b1010 N
b1 :
b1 A
b1 w
b1 2
b1 b
b1 p
b1 1
b1 c
b1 q
b1 -
b1 @
b1 d
b1010 >
b1010 M
b1010 z
b11 <
b11 e
b11 {
b11 &
b11 g
b11 ""
1!
b10101 ;
b10101 j
b10101 r
b10101 |
b0 9
b0 f
b0 }
0a
1`
b11111100000001 .
b11111100000001 O
b11111100000001 o
b1010 L
b1010 ,
b1010 n
b1010 y
1#
#42000
0#
#42500
b111 x
b111 h
b100000111 "
b100000111 (
b100000111 m
b100000111 #"
b11111100 :
b11111100 A
b11111100 w
b100000111 0
b100000111 ?
b100000111 k
1*
1+
b11111100 2
b11111100 b
b11111100 p
b1 1
b1 c
b1 q
b0 &
b0 g
b0 ""
0!
b0 -
b0 @
b0 d
b0 <
b0 e
b0 {
1a
0`
b100000111 K
b100110111111100 .
b100110111111100 O
b100110111111100 o
b1011 =
b1011 B
b1011 N
17
b1011 L
b1011 ,
b1011 n
b1011 y
b10101 >
b10101 M
b10101 z
b1001 ~
1#
#43000
0#
#43500
b110111 x
b110111 h
b110111 "
b110111 (
b110111 m
b110111 #"
b110111 0
b110111 ?
b110111 k
b100010 :
b100010 A
b100010 w
b110111 K
b100010 ;
b100010 j
b100010 r
b100010 |
b1 9
b1 f
b1 }
1!
b10 &
b10 g
b10 ""
0+
0*
b0 2
b0 b
b0 p
b0 1
b0 c
b0 q
b0 -
b0 @
b0 d
1`
1a
b10101 =
b10101 B
b10101 N
b101000000001 .
b101000000001 O
b101000000001 o
b111 L
b111 ,
b111 n
b111 y
1#
#44000
0#
#44500
b100010 x
b100010 h
b100010 "
b100010 (
b100010 m
b100010 #"
b100010 0
b100010 ?
b100010 k
b100010 K
b0 &
b0 g
b0 ""
1!
b10 -
b10 @
b10 d
b100010 ;
b100010 j
b100010 r
b100010 |
b1 9
b1 f
b1 }
1a
1`
b100000100001 .
b100000100001 O
b100000100001 o
1)
b1000 L
b1000 ,
b1000 n
b1000 y
b110111 !"
1#
#45000
0#
#45500
b110111 x
b110111 h
b110111 "
b110111 (
b110111 m
b110111 #"
b110111 0
b110111 ?
b110111 k
b110111 K
b110111 :
b110111 A
b110111 w
b110111 ;
b110111 j
b110111 r
b110111 |
b1 &
b1 g
b1 ""
1!
b10 9
b10 f
b10 }
1a
1`
b100010 =
b100010 B
b100010 N
b100100100010 .
b100100100010 O
b100100100010 o
b100010 >
b100010 M
b100010 z
b1001 L
b1001 ,
b1001 n
b1001 y
1#
#46000
0#
#46500
b1000 x
b1000 h
b1000 "
b1000 (
b1000 m
b1000 #"
b1000 0
b1000 ?
b1000 k
b1000 K
b1001 =
b1001 B
b1001 N
b1 :
b1 A
b1 w
b1 2
b1 b
b1 p
b1 1
b1 c
b1 q
b1 -
b1 @
b1 d
b1001 >
b1001 M
b1001 z
b11 <
b11 e
b11 {
b11 &
b11 g
b11 ""
1!
b100010 ;
b100010 j
b100010 r
b100010 |
b0 9
b0 f
b0 }
0a
1`
b11111100000001 .
b11111100000001 O
b11111100000001 o
b1010 L
b1010 ,
b1010 n
b1010 y
1#
#47000
0#
#47500
b111 x
b111 h
b100000111 "
b100000111 (
b100000111 m
b100000111 #"
b100000111 0
b100000111 ?
b100000111 k
b11111100 :
b11111100 A
b11111100 w
b100000111 K
1*
1+
b11111100 2
b11111100 b
b11111100 p
b1 1
b1 c
b1 q
b0 &
b0 g
b0 ""
0!
b0 -
b0 @
b0 d
b0 <
b0 e
b0 {
1a
0`
07
b1011 =
b1011 B
b1011 N
b100110111111100 .
b100110111111100 O
b100110111111100 o
b100010 >
b100010 M
b100010 z
b1000 ~
b1011 L
b1011 ,
b1011 n
b1011 y
1#
#48000
0#
#48500
b11001 x
b1011001 h
b1011001 "
b1011001 (
b1011001 m
b1011001 #"
b1011001 0
b1011001 ?
b1011001 k
b110111 :
b110111 A
b110111 w
b1011001 K
b110111 ;
b110111 j
b110111 r
b110111 |
b1 9
b1 f
b1 }
1!
b10 &
b10 g
b10 ""
0+
0*
b0 2
b0 b
b0 p
b0 1
b0 c
b0 q
b0 -
b0 @
b0 d
1`
1a
b100010 =
b100010 B
b100010 N
b101000000001 .
b101000000001 O
b101000000001 o
b111 L
b111 ,
b111 n
b111 y
1#
#49000
0#
#49500
b110111 x
b110111 h
b110111 "
b110111 (
b110111 m
b110111 #"
b110111 0
b110111 ?
b110111 k
b110111 K
b0 &
b0 g
b0 ""
1!
b10 -
b10 @
b10 d
b110111 ;
b110111 j
b110111 r
b110111 |
b1 9
b1 f
b1 }
1a
1`
b100000100001 .
b100000100001 O
b100000100001 o
b1011001 !"
b1000 L
b1000 ,
b1000 n
b1000 y
1#
#50000
0#
#50500
b11001 x
b1011001 h
b1011001 "
b1011001 (
b1011001 m
b1011001 #"
b1011001 0
b1011001 ?
b1011001 k
b1011001 K
b1011001 :
b1011001 A
b1011001 w
b1011001 ;
b1011001 j
b1011001 r
b1011001 |
b1 &
b1 g
b1 ""
1!
b10 9
b10 f
b10 }
1a
1`
b100100100010 .
b100100100010 O
b100100100010 o
b110111 =
b110111 B
b110111 N
b1001 L
b1001 ,
b1001 n
b1001 y
b110111 >
b110111 M
b110111 z
1#
#51000
0#
